^C:\USERS\ANTIT\SOURCE\REPOS\HOMEWORK14.3\RELEASE\HOMEWORK14.3.OBJ
C:\USERS\ANTIT\SOURCE\REPOS\HOMEWORK14.3\RELEASE\HOMEWORK14.3.EXE
C:\USERS\ANTIT\SOURCE\REPOS\HOMEWORK14.3\RELEASE\HOMEWORK14.3.PDB
