^C:\USERS\ANTIT\SOURCE\REPOS\HOMEWORK14.3\HOMEWORK14.3.CPP
C:\USERS\ANTIT\SOURCE\REPOS\HOMEWORK14.3\DEBUG\VC142.PDB
C:\USERS\ANTIT\SOURCE\REPOS\HOMEWORK14.3\DEBUG\VC142.IDB
C:\USERS\ANTIT\SOURCE\REPOS\HOMEWORK14.3\DEBUG\HOMEWORK14.3.OBJ
